Reproducible Data Analysis Project
…
##SG_Player select

#select player base on previous models analysis outcome
SG_player <- player_statistic %>% 
     group_by(player_name) %>% 
     filter(Pos ==  "SG", `2PA` > average_2PA,`3PA`> average_3PA, `FT` >average_FT) %>%   
     select(player_name,`GS`,Pos,`FT%`,`eFG%`,`FG`,`FG%`,`AST`,`salary`) %>% 
     arrange(desc(`eFG%`))
SG_player

## # A tibble: 35 x 9
## # Groups:   player_name [35]
##    player_name                 GS Pos   `FT%` `eFG%`    FG `FG%`   AST   salary
##    <chr>                    <dbl> <chr> <dbl>  <dbl> <dbl> <dbl> <dbl>    <dbl>
##  1 Joe Harris                  76 SG    0.827  0.622   374 0.5     181  8333333
##  2 Malcolm Brogdon             64 SG    0.928  0.575   378 0.505   205  1544951
##  3 Buddy Hield                 82 SG    0.886  0.56    623 0.458   205  3833760
##  4 JJ Redick                   63 SG    0.894  0.557   452 0.44    206 12250000
##  5 Klay Thompson               78 SG    0.816  0.553   655 0.467   186 18988725
##  6 Bradley Beal                82 SG    0.808  0.54    764 0.475   448 25434262
##  7 Terrence Ross                0 SG    0.875  0.534   440 0.428   135 10500000
##  8 Kentavious Caldwell-Pope    23 SG    0.867  0.53    325 0.43    110 12000000
##  9 CJ McCollum                 70 SG    0.828  0.527   571 0.459   207 25759766
## 10 Jaylen Brown                25 SG    0.658  0.525   368 0.465   100  5169960
## # ... with 25 more rows

Select Buddy Hieldas he has better Performance better but
lower price 

##PG_Player select

#select player base on previous models analysis outcome
PG_player <- player_statistic %>% 
  group_by(player_name) %>% 
  filter(Pos ==  "PG", `2PA` > average_2PA,`3PA`> average_3PA, `FT` >average_FT) %>%   
  select(player_name,`GS`,`FT%`,`eFG%`,`FG`,`FG%`,`AST`,`salary`) %>% 
  arrange(desc(`eFG%`))
PG_player

## # A tibble: 31 x 8
## # Groups:   player_name [31]
##    player_name         GS `FT%` `eFG%`    FG `FG%`   AST   salary
##    <chr>            <dbl> <dbl>  <dbl> <dbl> <dbl> <dbl>    <dbl>
##  1 Stephen Curry       69 0.916  0.604   632 0.472   361 37457154
##  2 DJ Augustin         81 0.866  0.566   318 0.47    426  7250000
##  3 Kyrie Irving        67 0.873  0.557   604 0.487   464 20099189
##  4 Eric Bledsoe        78 0.75   0.548   470 0.484   430 15000000
##  5 Tomas Satoransky    54 0.819  0.545   257 0.485   399  3129187
##  6 James Harden        78 0.879  0.541   843 0.442   586 30570000
##  7 Darren Collison     76 0.832  0.527   308 0.467   459 10000000
##  8 Jalen Brunson       38 0.725  0.523   264 0.467   230  1230000
##  9 Damian Lillard      80 0.912  0.522   681 0.444   551 27977689
## 10 Kyle Lowry          65 0.83   0.518   304 0.411   564 32700000
## # ... with 21 more rows
…
Select Kawhi Leonard casue he has better performance during
the similar price range 

##PF_Player select

#select player base on previous models analysis outcome
PF_player <- player_statistic %>% 
  group_by(player_name) %>% 
  filter(Pos ==  "PF", `2PA` > average_2PA,`3PA`> average_3PA, `FT` >average_FT) %>%   
  select(player_name,`GS`,`FT%`,`eFG%`,`FG`,`FG%`,`AST`,`salary`) %>% 
  arrange(desc(`eFG%`))
PF_player

## # A tibble: 21 x 8
## # Groups:   player_name [21]
##    player_name              GS `FT%` `eFG%`    FG `FG%`   AST   salary
##    <chr>                 <dbl> <dbl>  <dbl> <dbl> <dbl> <dbl>    <dbl>
##  1 Giannis Antetokounmpo    72 0.729  0.599   721 0.578   424 24157304
##  2 John Collins             59 0.763  0.593   465 0.56    121  2299080
##  3 Pascal Siakam            79 0.785  0.591   519 0.549   248  1544951
##  4 Jerami Grant             77 0.71   0.567   409 0.497    79  8333333
##  5 Joe Ingles               82 0.707  0.565   359 0.448   469 12545455
##  6 Jeff Green               44 0.888  0.555   326 0.475   137  2393887
##  7 Julius Randle            49 0.731  0.555   571 0.524   229  8641000
##  8 Rudy Gay                 51 0.816  0.554   376 0.504   182 10087200
##  9 Tobias Harris            82 0.866  0.549   611 0.487   229 14800000
## 10 Marcus Morris            53 0.844  0.533   377 0.447   109  5375000
## # ... with 11 more rows
…
